Division,WeightClassKg,Place,Name,Team,BodyweightKg,Best3SquatKg,Best3BenchKg,Best3DeadliftKg,TotalKg,Equipment,Event,Sex,BirthDate
Boys,51.71,1,Collen Prickett,Amarillo Highland Park,50.8,158.76,108.86,147.42,415.04,Unlimited,SBD,M,
Boys,51.71,2,Xavier Ellis,Kress,50.17,145.15,86.18,172.37,403.7,Unlimited,SBD,M,
Boys,51.71,3,Angel Salinas,Amarillo Highland Park,50.8,142.88,92.99,142.88,378.75,Unlimited,SBD,M,
Boys,51.71,4,Christian Nas,Perryton,51.26,140.61,77.11,154.22,371.95,Unlimited,SBD,M,
Boys,51.71,5,Bobby Hudson,Dumas,51.17,133.81,65.77,138.35,337.93,Unlimited,SBD,M,
Boys,51.71,6,Santiago Monreal,Perryton,50.03,131.54,63.5,133.81,328.85,Unlimited,SBD,M,
Boys,51.71,7,Azriel Flores,Friona,51.53,117.93,61.23,140.61,319.78,Unlimited,SBD,M,
Boys,51.71,8,Charlie Montgomery,Vega,51.03,113.4,58.97,104.33,276.69,Unlimited,SBD,M,
Boys,51.71,9,Isaiah White-Martinez,Borger,48.99,92.99,43.09,81.65,217.72,Unlimited,SBD,M,
Boys,55.79,1,Robert Noriega,Kress,55.29,176.9,97.52,195.04,469.47,Unlimited,SBD,M,
Boys,55.79,2,Michael Bautista,Friona,55.07,167.83,97.52,174.63,439.98,Unlimited,SBD,M,
Boys,55.79,3,Edward Rocha,Perryton,54.16,142.88,74.84,158.76,376.48,Unlimited,SBD,M,
Boys,55.79,4,Campbell Bargas,Amarillo Highland Park,55.2,138.35,86.18,149.69,374.21,Unlimited,SBD,M,
Boys,59.87,1,Jorge Garcia,Friona,59.33,183.7,106.59,174.63,464.93,Unlimited,SBD,M,
Boys,59.87,2,Mario Bautista,Friona,59.87,174.63,113.4,172.37,460.4,Unlimited,SBD,M,
Boys,59.87,3,Jaxon Downs,Panhandle,59.33,176.9,90.72,176.9,444.52,Unlimited,SBD,M,
Boys,59.87,4,Seger Maples,Amarillo Highland Park,59.19,158.76,104.33,176.9,439.98,Unlimited,SBD,M,
Boys,59.87,5,Kason Amador,Kress,59.19,165.56,86.18,167.83,419.57,Unlimited,SBD,M,
Boys,59.87,6,Sam DeSantiago,Perryton,59.1,156.49,102.06,149.69,408.23,Unlimited,SBD,M,
Boys,59.87,7,Christian Zapata,Kress,59.42,147.42,79.38,161.03,387.82,Unlimited,SBD,M,
Boys,59.87,8,Cole Kelso,Dalhart,58.88,142.88,88.45,154.22,385.55,Unlimited,SBD,M,
Boys,59.87,9,Gabriel Ramos,Friona,59.74,145.15,90.72,145.15,381.02,Unlimited,SBD,M,
Boys,59.87,10,Thomas Phan,Amarillo Highland Park,58.83,151.95,79.38,136.08,367.41,Unlimited,SBD,M,
Boys,59.87,11,Elian Ramos,Borger,59.47,174.63,74.84,115.67,365.14,Unlimited,SBD,M,
Boys,59.87,12,Brodie Purswell,Sunray,59.74,136.08,79.38,138.35,353.8,Unlimited,SBD,M,
Boys,59.87,13,Adrian Castillo,Kress,58.33,115.67,83.91,113.4,312.98,Unlimited,SBD,M,
Boys,59.87,14,Caleb Aguilar,Borger,56.52,111.13,72.57,115.67,299.37,Unlimited,SBD,M,
Boys,59.87,15,Caesar Rios,Sunray,59.83,86.18,63.5,111.13,260.82,Unlimited,SBD,M,
Boys,59.87,16,Hector Longoria,Borger,57.83,92.99,34.02,90.72,217.72,Unlimited,SBD,M,
Boys,59.87,DQ,Diego Cedillo,Kress,59.83,156.49,88.45,,,Unlimited,SBD,M,
Boys,67.13,1,Iram Castillo,Perryton,63.68,208.65,113.4,183.7,505.76,Unlimited,SBD,M,
Boys,67.13,2,Luis Escarcega,Dumas,67,201.85,115.67,183.7,501.22,Unlimited,SBD,M,
Boys,67.13,3,Josue Fernandez,Dumas,65.5,183.7,117.93,190.51,492.15,Unlimited,SBD,M,
Boys,67.13,4,Xuan Garcia,Friona,66.95,183.7,102.06,190.51,476.27,Unlimited,SBD,M,
Boys,67.13,5,Carlos Parra,Dumas,63.64,195.04,102.06,176.9,474,Unlimited,SBD,M,
Boys,67.13,6,Dawson Bennett,Sunray,64.23,199.58,92.99,163.29,455.86,Unlimited,SBD,M,
Boys,67.13,7,Dominic Galvan,Amarillo Highland Park,65.45,165.56,90.72,181.44,437.72,Unlimited,SBD,M,
Boys,67.13,8,Lane Hoppe,Dalhart,66.77,158.76,108.86,163.29,430.91,Unlimited,SBD,M,
Boys,67.13,9,Kade Speers,Dalhart,62.73,156.49,97.52,163.29,417.3,Unlimited,SBD,M,
Boys,67.13,10,Kia Kenimer,Borger,67.13,181.44,83.91,142.88,408.23,Unlimited,SBD,M,
Boys,67.13,11,Dominic Esparza,Borger,67.09,167.83,86.18,151.95,405.97,Unlimited,SBD,M,
Boys,67.13,12,Edgar Gallegos,Sunray,66.36,151.95,90.72,158.76,401.43,Unlimited,SBD,M,
Boys,67.13,13,Devion Ellis,Kress,62.64,151.95,72.57,151.95,376.48,Unlimited,SBD,M,
Boys,67.13,14,Gael Lara,Friona,64.23,142.88,83.91,149.69,376.48,Unlimited,SBD,M,
Boys,67.13,15,James Hoang,Amarillo Highland Park,63.82,129.27,77.11,151.95,358.34,Unlimited,SBD,M,
Boys,67.13,16,Patrick Robinson,Panhandle,64.95,129.27,72.57,138.35,340.19,Unlimited,SBD,M,
Boys,67.13,17,Victor Henriquez,Borger,64.14,111.13,74.84,129.27,315.25,Unlimited,SBD,M,
Boys,74.84,1,Sabien Perry,Dumas,74.39,281.23,170.1,235.87,687.19,Unlimited,SBD,M,
Boys,74.84,2,Michael Guzman,Kress,74.71,238.14,127.01,233.6,598.74,Unlimited,SBD,M,
Boys,74.84,3,Conner Fry,Dumas,73.16,213.19,113.4,165.56,492.15,Unlimited,SBD,M,
Boys,74.84,4,Fabio Perez,Dalhart,68.67,183.7,124.74,181.44,489.88,Unlimited,SBD,M,
Boys,74.84,5,Eidan Loera,Dumas,72.48,204.12,117.93,163.29,485.34,Unlimited,SBD,M,
Boys,74.84,6,Erick Calsadillas,Sunray,72.17,165.56,122.47,174.63,462.66,Unlimited,SBD,M,
Boys,74.84,7,Walker te Velde,Vega,69.17,136.08,92.99,142.88,371.95,Unlimited,SBD,M,
Boys,74.84,8,Elias Galvan,Amarillo Highland Park,73.94,129.27,83.91,147.42,360.61,Unlimited,SBD,M,
Boys,74.84,9,Jeren Jones,Amarillo Highland Park,69.22,102.06,77.11,124.74,303.91,Unlimited,SBD,M,
Boys,74.84,DQ,Brayan Rangel,Dumas,74.71,240.4,,,,Unlimited,SBD,M,
Boys,82.1,1,Jaden Noriega,Kress,78.02,222.26,138.35,222.26,582.87,Unlimited,SBD,M,
Boys,82.1,2,Dylan Davis,Panhandle,76.34,235.87,117.93,204.12,557.92,Unlimited,SBD,M,
Boys,82.1,3,Israel Gabriel,Perryton,78.24,219.99,120.2,217.72,557.92,Unlimited,SBD,M,
Boys,82.1,4,Junior Garcia,Amarillo Highland Park,77.16,192.78,120.2,217.72,530.7,Unlimited,SBD,M,
Boys,82.1,5,Whitman Martin,Panhandle,80.51,204.12,127.01,195.04,526.17,Unlimited,SBD,M,
Boys,82.1,6,Arnold Mendoza,Sunray,78.56,210.92,108.86,204.12,523.9,Unlimited,SBD,M,
Boys,82.1,7,Juju Rivera,Borger,79.74,199.58,136.08,170.1,505.76,Unlimited,SBD,M,
Boys,82.1,8,Tony Rodriguez,Friona,79.24,183.7,111.13,183.7,478.54,Unlimited,SBD,M,
Boys,82.1,9,Juan Lopez,Dalhart,77.16,174.63,108.86,151.95,435.45,Unlimited,SBD,M,
Boys,82.1,10,Jack Sinclair,Panhandle,82.01,151.95,92.99,161.03,405.97,Unlimited,SBD,M,
Boys,82.1,11,Joseph Gaines,Dalhart,80.29,161.03,95.25,147.42,403.7,Unlimited,SBD,M,
Boys,82.1,DQ,Luis Rivera,Perryton,77.84,231.33,,,,Unlimited,SBD,M,
Boys,89.81,1,Dalton Leven,Dumas,88.81,308.44,179.17,249.48,737.09,Unlimited,SBD,M,
Boys,89.81,2,Aurelio Medrano,Dumas,86.86,263.08,138.35,226.8,628.23,Unlimited,SBD,M,
Boys,89.81,3,Jesse Butcher,Amarillo Highland Park,87.23,222.26,140.61,254.01,616.89,Unlimited,SBD,M,
Boys,89.81,4,Mike Theis,Panhandle,82.83,199.58,149.69,195.04,544.31,Unlimited,SBD,M,
Boys,89.81,5,Alex Penton,Dalhart,87.63,208.65,120.2,206.38,535.24,Unlimited,SBD,M,
Boys,89.81,6,Thomas Tran,Amarillo Highland Park,88.09,197.31,124.74,208.65,530.7,Unlimited,SBD,M,
Boys,89.81,7,Clay Wagner,Panhandle,89.72,204.12,129.27,188.24,521.63,Unlimited,SBD,M,
Boys,89.81,8,Tyler Farley,Amarillo Highland Park,82.42,163.29,115.67,206.38,485.34,Unlimited,SBD,M,
Boys,89.81,9,Angel Saucedo,Friona,88.95,183.7,97.52,181.44,462.66,Unlimited,SBD,M,
Boys,89.81,10,Hayden Phares,Borger,89.77,167.83,124.74,158.76,451.32,Unlimited,SBD,M,
Boys,89.81,11,Logan Leisher,Panhandle,84.23,142.88,65.77,138.35,347,Unlimited,SBD,M,
Boys,89.81,DQ,Jacob Raissez,Perryton,89.13,,,,,Unlimited,SBD,M,
Boys,99.79,1,Rome Palonco,Borger,95.8,256.28,147.42,226.8,630.49,Unlimited,SBD,M,
Boys,99.79,2,Ishmael Flores,Friona,99.79,249.48,138.35,238.14,625.96,Unlimited,SBD,M,
Boys,99.79,3,Isaiah Padilla,Borger,99.06,238.14,167.83,204.12,610.08,Unlimited,SBD,M,
Boys,99.79,4,Zavian Quiroga,Dumas,90.81,217.72,133.81,204.12,555.65,Unlimited,SBD,M,
Boys,99.79,5,Hevilat Perez,Friona,90.45,226.8,133.81,183.7,544.31,Unlimited,SBD,M,
Boys,99.79,6,Dusty Medina,Panhandle,89.9,204.12,120.2,204.12,528.44,Unlimited,SBD,M,
Boys,99.79,7,Matthew Burch,Amarillo Highland Park,97.79,183.7,122.47,204.12,510.29,Unlimited,SBD,M,
Boys,99.79,8,Diego Quezada,Friona,96.57,167.83,106.59,172.37,446.79,Unlimited,SBD,M,
Boys,99.79,9,Chris Cortes,Amarillo Highland Park,96.16,131.54,79.38,147.42,358.34,Unlimited,SBD,M,
Boys,99.79,DQ,Dalton L'Esperance,Perryton,94.57,256.28,147.42,,,Unlimited,SBD,M,
Boys,109.77,1,Jaydan Tovar,Dumas,106.05,294.84,174.63,244.94,714.41,Unlimited,SBD,M,
Boys,109.77,2,Bryan Chacon,Perryton,108.73,272.16,156.49,251.74,680.39,Unlimited,SBD,M,
Boys,109.77,3,Mario Garcia,Friona,100.65,240.4,145.15,210.92,596.47,Unlimited,SBD,M,
Boys,109.77,4,Zach Stephens,Panhandle,99.84,213.19,129.27,176.9,519.36,Unlimited,SBD,M,
Boys,109.77,5,Cj Nail,Borger,103.92,197.31,122.47,183.7,503.49,Unlimited,SBD,M,
Boys,109.77,6,Antony Hoang,Amarillo Highland Park,108.82,183.7,99.79,170.1,453.59,Unlimited,SBD,M,
Boys,109.77,7,Paul Cody,Kress,101.2,158.76,111.13,167.83,437.72,Unlimited,SBD,M,
Boys,124.74,1,Jacob Hernandez,Vega,119.52,335.66,197.31,249.48,782.45,Unlimited,SBD,M,
Boys,124.74,2,Keegan Ireland,Dumas,116.89,299.37,183.7,272.16,755.23,Unlimited,SBD,M,
Boys,124.74,3,Kaleb Lucas,Amarillo Highland Park,116.98,151.95,86.18,151.95,390.09,Unlimited,SBD,M,
Boys,124.74,4,Elias Becerril,Perryton,112.17,142.88,86.18,156.49,385.55,Unlimited,SBD,M,
Boys,124.74,5,Joel Morales,Borger,111.58,129.27,83.91,163.29,376.48,Unlimited,SBD,M,
Boys,124.74,6,Trintyn Hasty,Sunray,117.8,113.4,92.99,142.88,349.27,Unlimited,SBD,M,
Boys,124.74,DQ,Hector Pando,Dumas,124.74,340.19,,,,Unlimited,SBD,M,
Boys,124.74,DQ,Aaron Rodriguez,Friona,114.03,242.67,,,,Unlimited,SBD,M,
Boys,124.74,DQ,Ethan Davila,Dalhart,115.94,233.6,,,,Unlimited,SBD,M,
Boys,124.74,DQ,Carlos Cardenas,Borger,109.81,215.46,115.67,,,Unlimited,SBD,M,
Boys,139.71,1,Juan Alvarez,Perryton,138.8,265.35,151.95,217.72,635.03,Unlimited,SBD,M,
Boys,139.71,2,Brandon Trujillo,Vega,125.28,140.61,65.77,117.93,324.32,Unlimited,SBD,M,
Boys,139.71+,1,Tiden Temple,Dumas,155.08,174.63,122.47,170.1,467.2,Unlimited,SBD,M,
