Division,WeightClassKg,Place,Name,Team,BodyweightKg,Best3SquatKg,Best3BenchKg,Best3DeadliftKg,TotalKg,Equipment,Event,Sex,BirthDate
Girls,47.85,1,Jennifer Diaz,New London West Rusk,47.4,90.72,36.29,113.4,240.4,Unlimited,SBD,F,
Girls,47.85,2,Kahlen Mason,New London West Rusk,46.27,65.77,24.95,70.31,161.03,Unlimited,SBD,F,
Girls,51.94,1,Karsyn Williamson,Troup,51.48,95.25,54.43,102.06,251.74,Unlimited,SBD,F,
Girls,51.94,2,Hailey Attaway,Troup,51.94,83.91,45.36,81.65,210.92,Unlimited,SBD,F,
Girls,56.02,1,Alyssa Bryant,Bullard,54.57,113.4,47.63,111.13,272.16,Unlimited,SBD,F,
Girls,56.02,2,Shakayla Brooks,Tyler Chapel Hill,52.07,97.52,52.16,120.2,269.89,Unlimited,SBD,F,
Girls,56.02,DQ,Reese Lovelady,Troup,54.11,,,,,Unlimited,SBD,F,
Girls,60.1,1,Yarahi Yanez,Troup,60.06,129.27,68.04,122.47,319.78,Unlimited,SBD,F,
Girls,60.1,2,Emerson Moore,Bullard,59.33,122.47,70.31,122.47,315.25,Unlimited,SBD,F,
Girls,60.1,3,Sariah Lacy,New London West Rusk,57.06,106.59,40.82,117.93,265.35,Unlimited,SBD,F,
Girls,60.1,4,Mariah Thompson,Whitehouse,58.06,86.18,38.56,97.52,222.26,Unlimited,SBD,F,
Girls,67.36,1,Kaitlyn Alexander,Bullard,67.22,124.74,65.77,124.74,315.25,Unlimited,SBD,F,
Girls,67.36,2,Emma Williams,Whitehouse,65.63,117.93,68.04,113.4,299.37,Unlimited,SBD,F,
Girls,67.36,3,Rosalie Carney,Whitehouse,62.37,106.59,52.16,122.47,281.23,Unlimited,SBD,F,
Girls,67.36,4,Emily Netro,New London West Rusk,67.36,111.13,61.23,106.59,278.96,Unlimited,SBD,F,
Girls,67.36,5,Jalah Newton,New London West Rusk,63.87,102.06,52.16,115.67,269.89,Unlimited,SBD,F,
Girls,67.36,6,Lauren Bryant,Bullard,67.04,92.99,58.97,104.33,256.28,Unlimited,SBD,F,
Girls,67.36,7,Angelena Rodriguez,Tyler Chapel Hill,67.31,104.33,52.16,,156.49,Unlimited,SB,F,
Girls,75.07,1,Reagan Shofner,Troup,74.25,133.81,74.84,136.08,344.73,Unlimited,SBD,F,
Girls,82.33,1,DaKaila Landon,New London West Rusk,76.07,133.81,61.23,122.47,317.51,Unlimited,SBD,F,
Girls,82.33,2,Trinity Roberts,Whitehouse,77.52,108.86,65.77,117.93,292.57,Unlimited,SBD,F,
Girls,82.33,3,Landry Bridges,Bullard,79.06,108.86,63.5,108.86,281.23,Unlimited,SBD,F,
Girls,82.33,DQ,Citalli Romero,Troup,78.15,,,,,Unlimited,SBD,F,
Girls,100.02,1,Rachel English,New London West Rusk,93.58,158.76,88.45,131.54,378.75,Unlimited,SBD,F,
Girls,100.02,2,Talia Fala,Tyler Chapel Hill,95.93,108.86,70.31,115.67,294.84,Unlimited,SBD,F,
Girls,117.71,1,Layney Santos,Bullard,117.66,163.29,90.72,131.54,385.55,Unlimited,SBD,F,
Girls,117.71+,1,Cara Thetford,Troup,127.64,90.72,61.23,102.06,254.01,Unlimited,SBD,F,
