Division,WeightClassKg,Place,Name,Team,BodyweightKg,Best3SquatKg,Best3BenchKg,Best3DeadliftKg,TotalKg,Equipment,Event,Sex,BirthDate
Boys,51.71,1,Josh Camacho,Hooks,50.44,129.27,74.84,129.27,333.39,Unlimited,SBD,M,
Boys,51.71,2,Jayson Clark,Marshall,51.07,117.93,63.5,117.93,299.37,Unlimited,SBD,M,
Boys,51.71,3,Cody Roberts,Redwater,47.08,102.06,63.5,102.06,267.62,Unlimited,SBD,M,
Boys,51.71,4,Cayden Espinoza,Simms Bowie,47.9,92.99,61.23,108.86,263.08,Unlimited,SBD,M,
Boys,51.71,5,Aiden Stanley,Mount Pleasant Chapel Hill,45.27,70.31,56.7,104.33,231.33,Unlimited,SBD,M,
Boys,51.71,6,Kennedy Miller,Henderson,49.44,61.23,45.36,92.99,199.58,Unlimited,SBD,M,
Boys,51.71,7,Alex Castro,Mount Pleasant,46.45,49.9,31.75,79.38,161.03,Unlimited,SBD,M,
Boys,51.71,DQ,Vincent Tucker,Jefferson,46.45,63.5,,,,Unlimited,SBD,M,
Boys,55.79,1,Dylan Walls,Gladewater Sabine,52.25,131.54,61.23,127.01,319.78,Unlimited,SBD,M,
Boys,55.79,2,Alex Simpson,Daingerfield,53.98,120.2,77.11,122.47,319.78,Unlimited,SBD,M,
Boys,55.79,3,Caleb Kimble,Queen City,54.61,102.06,61.23,138.35,301.64,Unlimited,SBD,M,
Boys,55.79,4,Lucas Woolem,Ore City,54.98,122.47,72.57,106.59,301.64,Unlimited,SBD,M,
Boys,55.79,5,Dylan Pfister,Redwater,55.43,113.4,65.77,113.4,292.57,Unlimited,SBD,M,
Boys,55.79,6,Landon Caudle,Maud,54.34,102.06,63.5,113.4,278.96,Unlimited,SBD,M,
Boys,55.79,7,Logan Meredith,Texarkana Texas,52.16,97.52,65.77,106.59,269.89,Unlimited,SBD,M,
Boys,55.79,8,Aidyn Chavez,Mount Pleasant,54.34,88.45,47.63,102.06,238.14,Unlimited,SBD,M,
Boys,55.79,9,Matt Watkins,Daingerfield,54.88,61.23,49.9,88.45,199.58,Unlimited,SBD,M,
Boys,59.87,1,Michael Lane,Linden-Kildare,58.33,158.76,81.65,161.03,401.43,Unlimited,SBD,M,
Boys,59.87,2,Amaryon Jones,Texarkana Texas,59.87,142.88,77.11,156.49,376.48,Unlimited,SBD,M,
Boys,59.87,3,Tyler Beebe,Gladewater Sabine,59.15,117.93,74.84,142.88,335.66,Unlimited,SBD,M,
Boys,59.87,4,Titan Morse,Pittsburg,56.34,106.59,83.91,136.08,326.59,Unlimited,SBD,M,
Boys,59.87,5,Thomas Guest,Queen City,58.33,117.93,77.11,131.54,326.59,Unlimited,SBD,M,
Boys,59.87,6,Logan Byrd,Queen City,56.52,120.2,56.7,124.74,301.64,Unlimited,SBD,M,
Boys,59.87,7,Christian Paz,Daingerfield,57.61,90.72,72.57,131.54,294.84,Unlimited,SBD,M,
Boys,59.87,8,Nick Pappas,Redwater,57.61,104.33,61.23,117.93,283.5,Unlimited,SBD,M,
Boys,59.87,9,Aiden Hampton,Hughes Springs,59.42,106.59,56.7,111.13,274.42,Unlimited,SBD,M,
Boys,59.87,10,Eloy De Hoyos,Jefferson,56.15,90.72,72.57,102.06,265.35,Unlimited,SBD,M,
Boys,59.87,11,Blake Broach,Mount Pleasant,58.42,102.06,58.97,102.06,263.08,Unlimited,SBD,M,
Boys,59.87,12,Matthew Kline,Jefferson,59.6,79.38,47.63,72.57,199.58,Unlimited,SBD,M,
Boys,59.87,DQ,Cy Sledge,Henderson,57.06,,,,,Unlimited,SBD,M,
Boys,67.13,1,Joe Ray,Gladewater Sabine,64.68,192.78,97.52,195.04,485.34,Unlimited,SBD,M,
Boys,67.13,2,Judson Carter,Jefferson,67.13,138.35,102.06,201.85,442.25,Unlimited,SBD,M,
Boys,67.13,3,Austin Phelps,Atlanta,64.86,142.88,102.06,165.56,410.5,Unlimited,SBD,M,
Boys,67.13,4,Aj Woods,Harleton,66.86,158.76,88.45,161.03,408.23,Unlimited,SBD,M,
Boys,67.13,5,Colt Morrow,Redwater,67.13,147.42,90.72,163.29,401.43,Unlimited,SBD,M,
Boys,67.13,6,Tristan Tornberg,Gladewater Sabine,64.95,133.81,83.91,142.88,360.61,Unlimited,SBD,M,
Boys,67.13,7,Rhyder Richardson,Gladewater Sabine,66.59,133.81,97.52,129.27,360.61,Unlimited,SBD,M,
Boys,67.13,8,Zack Dukes,Simms Bowie,62.78,124.74,74.84,156.49,356.07,Unlimited,SBD,M,
Boys,67.13,9,RJ Galloway,Texarkana Liberty-Eylau,61.42,117.93,102.06,133.81,353.8,Unlimited,SBD,M,
Boys,67.13,10,Jack Coleman,Simms Bowie,64.86,124.74,88.45,140.61,353.8,Unlimited,SBD,M,
Boys,67.13,11,James Phillips,Hughes Springs,66.95,142.88,61.23,147.42,351.53,Unlimited,SBD,M,
Boys,67.13,12,Aaron Nolan,Pittsburg,64.59,117.93,81.65,149.69,349.27,Unlimited,SBD,M,
Boys,67.13,13,Steven Hall,Maud,64.5,136.08,68.04,136.08,340.19,Unlimited,SBD,M,
Boys,67.13,14,Lee Alford,Ore City,63.23,115.67,81.65,127.01,324.32,Unlimited,SBD,M,
Boys,67.13,15,Logan Wall,Jefferson,60.24,120.2,63.5,127.01,310.71,Unlimited,SBD,M,
Boys,67.13,16,Christian Richardson,Simms Bowie,61.96,111.13,63.5,124.74,299.37,Unlimited,SBD,M,
Boys,67.13,17,Kaden Butler,Pittsburg,61.42,108.86,72.57,106.59,288.03,Unlimited,SBD,M,
Boys,67.13,18,Daniel Castillo,Mount Pleasant,64.23,88.45,61.23,120.2,269.89,Unlimited,SBD,M,
Boys,67.13,19,Jose Herrera,Pittsburg,65.95,83.91,70.31,92.99,247.21,Unlimited,SBD,M,
Boys,67.13,20,Toby Rojas,Pittsburg,61.69,88.45,43.09,97.52,229.06,Unlimited,SBD,M,
Boys,67.13,DQ,Caleb Roberts,Simms Bowie,61.6,115.67,58.97,,,Unlimited,SBD,M,
Boys,67.13,DQ,Jaxton Welch,Harleton,67.04,167.83,99.79,,,Unlimited,SBD,M,
Boys,74.84,1,Gage Shirts,Harleton,72.57,217.72,120.2,190.51,528.44,Unlimited,SBD,M,
Boys,74.84,2,Dominick Alvarez,Henderson,74.48,183.7,108.86,192.78,485.34,Unlimited,SBD,M,
Boys,74.84,3,Kaden Fincher,Queen City,69.58,190.51,99.79,181.44,471.74,Unlimited,SBD,M,
Boys,74.84,4,Brendan Scott,Harleton,73.21,176.9,113.4,181.44,471.74,Unlimited,SBD,M,
Boys,74.84,5,Darryck Prounh,Atlanta,70.31,163.29,106.59,192.78,462.66,Unlimited,SBD,M,
Boys,74.84,6,Hunter Harkins,Henderson,74.84,174.63,104.33,183.7,462.66,Unlimited,SBD,M,
Boys,74.84,7,Nicholas Collins,Tyler,71.67,158.76,99.79,190.51,449.06,Unlimited,SBD,M,
Boys,74.84,8,Anthony Helms,Redwater,70.67,163.29,117.93,154.22,435.45,Unlimited,SBD,M,
Boys,74.84,9,Charlie Kirkland,Linden-Kildare,72.3,181.44,97.52,154.22,433.18,Unlimited,SBD,M,
Boys,74.84,10,Ty Pierce #2,Harleton,67.31,145.15,99.79,147.42,392.36,Unlimited,SBD,M,
Boys,74.84,11,Coy Stephens,Gladewater Sabine,72.3,142.88,90.72,151.95,385.55,Unlimited,SBD,M,
Boys,74.84,12,Tyce Pollan,Texarkana Liberty-Eylau,68.49,138.35,95.25,147.42,381.02,Unlimited,SBD,M,
Boys,74.84,13,Bryson Taylor,Mount Pleasant Chapel Hill,72.03,129.27,88.45,158.76,376.48,Unlimited,SBD,M,
Boys,74.84,14,Keyunta Lias,Marshall,67.4,142.88,86.18,136.08,365.14,Unlimited,SBD,M,
Boys,74.84,15,Grayson Hicks,Gladewater Sabine,71.94,142.88,83.91,138.35,365.14,Unlimited,SBD,M,
Boys,74.84,16,Timothy Brady,Queen City,70.76,129.27,61.23,154.22,344.73,Unlimited,SBD,M,
Boys,74.84,17,Kyron Richardson,Texarkana Liberty-Eylau,73.12,124.74,74.84,142.88,342.46,Unlimited,SBD,M,
Boys,74.84,18,Javante Rivera,Daingerfield,73.75,129.27,70.31,142.88,342.46,Unlimited,SBD,M,
Boys,74.84,19,Keegan Salers,Queen City,69.13,106.59,61.23,136.08,303.91,Unlimited,SBD,M,
Boys,74.84,DQ,Taiwon Henderson,Atlanta,74.21,120.2,,,,Unlimited,SBD,M,
Boys,82.1,1,Kaleb Tate,Henderson,82.01,226.8,147.42,229.06,603.28,Unlimited,SBD,M,
Boys,82.1,2,Zander Stroman,Harleton,81.1,210.92,147.42,201.85,560.19,Unlimited,SBD,M,
Boys,82.1,3,Tyler Lowe,Harleton,77.02,222.26,113.4,190.51,526.17,Unlimited,SBD,M,
Boys,82.1,4,Tristan Peterson,Gladewater Sabine,79.29,208.65,115.67,195.04,519.36,Unlimited,SBD,M,
Boys,82.1,5,Josh Mata,Henderson,77.84,188.24,124.74,192.78,505.76,Unlimited,SBD,M,
Boys,82.1,6,Cameron Johnson,Harleton,81.1,185.97,120.2,185.97,492.15,Unlimited,SBD,M,
Boys,82.1,7,Christian Nard,Queen City,80.2,183.7,111.13,192.78,487.61,Unlimited,SBD,M,
Boys,82.1,8,Lathan Crabtree,Texarkana Liberty-Eylau,82.01,174.63,129.27,183.7,487.61,Unlimited,SBD,M,
Boys,82.1,9,Wyatt Clepper,Texarkana Liberty-Eylau,80.29,183.7,127.01,172.37,483.08,Unlimited,SBD,M,
Boys,82.1,10,Kamren Stiger,Hooks,80.2,183.7,111.13,183.7,478.54,Unlimited,SBD,M,
Boys,82.1,11,Joe Herrera,Henderson,81.65,163.29,115.67,176.9,455.86,Unlimited,SBD,M,
Boys,82.1,12,Isaiah Bush,Marshall,76.38,183.7,106.59,154.22,444.52,Unlimited,SBD,M,
Boys,82.1,13,Cason Patterson,Gladewater Sabine,79.56,151.95,102.06,170.1,424.11,Unlimited,SBD,M,
Boys,82.1,14,Slyder Sanders,Maud,79.74,174.63,92.99,149.69,417.3,Unlimited,SBD,M,
Boys,82.1,15,David Pena,Linden-Kildare,78.02,147.42,102.06,154.22,403.7,Unlimited,SBD,M,
Boys,82.1,16,Kayden Evans,Simms Bowie,77.93,145.15,97.52,151.95,394.63,Unlimited,SBD,M,
Boys,82.1,17,Jeffery Andrews,Ore City,78.02,149.69,90.72,142.88,383.29,Unlimited,SBD,M,
Boys,82.1,18,Aiden Ashmore,Hooks,77.11,151.95,79.38,149.69,381.02,Unlimited,SBD,M,
Boys,82.1,19,Malachi Lewis,Texarkana Liberty-Eylau,81.01,129.27,65.77,142.88,337.93,Unlimited,SBD,M,
Boys,82.1,20,Dylan Ramirez,Mount Pleasant,76.93,124.74,56.7,136.08,317.51,Unlimited,SBD,M,
Boys,82.1,21,Jesus Bocanegra,Pittsburg,76.48,113.4,54.43,113.4,281.23,Unlimited,SBD,M,
Boys,82.1,DQ,Diego Lozano,Tyler,76.02,127.01,,,,Unlimited,SBD,M,
Boys,82.1,DQ,Johnathan Martin,Tyler,80.92,117.93,,,,Unlimited,SBD,M,
Boys,82.1,DQ,Ethan Evans,Simms Bowie,75.39,58.97,,,,Unlimited,SBD,M,
Boys,89.81,1,Parker Key,Jefferson,88.72,238.14,149.69,238.14,625.96,Unlimited,SBD,M,
Boys,89.81,2,Kyle Gross,Atlanta,87.27,217.72,147.42,251.74,616.89,Unlimited,SBD,M,
Boys,89.81,3,Courtlyn Crabtree,Texarkana Liberty-Eylau,89.81,226.8,147.42,201.85,576.06,Unlimited,SBD,M,
Boys,89.81,4,Fran'Davion Smith,Texarkana Texas,88.54,210.92,142.88,204.12,557.92,Unlimited,SBD,M,
Boys,89.81,5,Joseph Royce,Gladewater Sabine,87.63,206.38,124.74,206.38,537.51,Unlimited,SBD,M,
Boys,89.81,6,Noel Farjardo,Harleton,89.36,201.85,120.2,201.85,523.9,Unlimited,SBD,M,
Boys,89.81,7,Ta'Shun Mitchell,Linden-Kildare,89.27,183.7,136.08,183.7,503.49,Unlimited,SBD,M,
Boys,89.81,8,Canden Green,Simms Bowie,89.54,183.7,108.86,165.56,458.13,Unlimited,SBD,M,
Boys,89.81,9,Reece Bailey,Maud,86.36,174.63,102.06,176.9,453.59,Unlimited,SBD,M,
Boys,89.81,10,Karson Brown,Mount Pleasant,89.36,165.56,102.06,165.56,433.18,Unlimited,SBD,M,
Boys,89.81,11,Billy Prince,Hughes Springs,85.37,138.35,92.99,192.78,424.11,Unlimited,SBD,M,
Boys,89.81,12,Logan Marsh,Pittsburg,83.82,158.76,86.18,154.22,399.16,Unlimited,SBD,M,
Boys,89.81,13,Kent Odum,Ore City,88.36,129.27,79.38,136.08,344.73,Unlimited,SBD,M,
Boys,99.79,1,Knox Tomlinson,Jefferson,98.34,238.14,136.08,229.06,603.28,Unlimited,SBD,M,
Boys,99.79,2,Landon Moses,Gladewater Sabine,94.98,235.87,151.95,213.19,601.01,Unlimited,SBD,M,
Boys,99.79,3,Cade Pipes,Redwater,91.53,226.8,142.88,215.46,585.13,Unlimited,SBD,M,
Boys,99.79,4,Sam Black,Gladewater Sabine,97.25,242.67,115.67,226.8,585.13,Unlimited,SBD,M,
Boys,99.79,5,Austin Stephens,Gladewater Sabine,99.52,233.6,147.42,195.04,576.06,Unlimited,SBD,M,
Boys,99.79,6,Carter Bibb,Harleton,95.16,219.99,108.86,231.33,560.19,Unlimited,SBD,M,
Boys,99.79,7,Dylan Braley,Simms Bowie,97.07,231.33,129.27,199.58,560.19,Unlimited,SBD,M,
Boys,99.79,8,Gunner Robinson,Simms Bowie,97.7,204.12,117.93,197.31,519.36,Unlimited,SBD,M,
Boys,99.79,9,Isaiah Dowden,Texarkana Texas,92.17,163.29,124.74,226.8,514.83,Unlimited,SBD,M,
Boys,99.79,10,Krue Kirkendall,Texarkana Texas,97.79,190.51,108.86,204.12,503.49,Unlimited,SBD,M,
Boys,99.79,11,Tye Hall,Simms Bowie,97.07,188.24,111.13,188.24,487.61,Unlimited,SBD,M,
Boys,99.79,12,Hayden Rasberry,Henderson,90.9,183.7,117.93,174.63,476.27,Unlimited,SBD,M,
Boys,99.79,13,Brendan Clayton,Atlanta,90.81,174.63,102.06,188.24,464.93,Unlimited,SBD,M,
Boys,99.79,14,Braxton Peifer,Hughes Springs,91.08,165.56,124.74,174.63,464.93,Unlimited,SBD,M,
Boys,99.79,15,Travis Smith,Redwater,95.89,183.7,122.47,156.49,462.66,Unlimited,SBD,M,
Boys,99.79,16,DeVon Hardiman,Redwater,90.99,161.03,108.86,183.7,453.59,Unlimited,SBD,M,
Boys,99.79,17,Joe Miller,Texarkana Texas,94.89,181.44,113.4,147.42,442.25,Unlimited,SBD,M,
Boys,99.79,18,Gavin Brooks,Redwater,92.08,149.69,102.06,167.83,419.57,Unlimited,SBD,M,
Boys,99.79,19,Braylon Hurndon,Mount Pleasant Chapel Hill,94.35,161.03,86.18,170.1,417.3,Unlimited,SBD,M,
Boys,99.79,20,Isaiah Baker,Tyler,99.06,142.88,74.84,158.76,376.48,Unlimited,SBD,M,
Boys,99.79,21,Derian Trussell,Atlanta,96.71,122.47,70.31,142.88,335.66,Unlimited,SBD,M,
Boys,99.79,22,Cason Weatherton,Henderson,91.81,65.77,136.08,92.99,294.84,Unlimited,SBD,M,
Boys,99.79,23,Anthony Gonzalez,Mount Pleasant,97.16,74.84,34.02,102.06,210.92,Unlimited,SBD,M,
Boys,99.79,DQ,Zeke Crane,Daingerfield,98.61,,,,,Unlimited,SBD,M,
Boys,109.77,1,David Carlisle,Marshall,101.97,226.8,136.08,222.26,585.13,Unlimited,SBD,M,
Boys,109.77,2,De'Vonta Waites,Jefferson,100.24,244.94,122.47,213.19,580.6,Unlimited,SBD,M,
Boys,109.77,3,Rogers Clark,Texarkana Liberty-Eylau,105.41,204.12,129.27,204.12,537.51,Unlimited,SBD,M,
Boys,109.77,4,Kameron Wright,Queen City,102.15,195.04,133.81,188.24,517.1,Unlimited,SBD,M,
Boys,109.77,5,Orlando Barnes,Texarkana Texas,103.69,183.7,156.49,172.37,512.56,Unlimited,SBD,M,
Boys,109.77,6,Evan Holman,Texarkana Texas,102.42,188.24,113.4,208.65,510.29,Unlimited,SBD,M,
Boys,109.77,7,James Collier,Tyler,104.24,181.44,115.67,210.92,508.02,Unlimited,SBD,M,
Boys,109.77,8,Tristen Taylor,Tyler,109.13,167.83,106.59,231.33,505.76,Unlimited,SBD,M,
Boys,109.77,9,Logan Wages,Simms Bowie,103.78,192.78,92.99,217.72,503.49,Unlimited,SBD,M,
Boys,109.77,10,Jordan Henderson,Texarkana Texas,104.33,158.76,113.4,226.8,498.95,Unlimited,SBD,M,
Boys,109.77,11,Dedren Walker,Texarkana Texas,104.69,145.15,158.76,190.51,494.42,Unlimited,SBD,M,
Boys,109.77,12,Rashad Ganter,Texarkana Liberty-Eylau,105.96,192.78,120.2,174.63,487.61,Unlimited,SBD,M,
Boys,109.77,13,Nate Hernandez,Atlanta,108.68,174.63,113.4,197.31,485.34,Unlimited,SBD,M,
Boys,109.77,14,Keidie Harrison,Queen City,101.24,183.7,92.99,204.12,480.81,Unlimited,SBD,M,
Boys,109.77,15,Abisandro Cornelio,Tyler,101.33,183.7,113.4,181.44,478.54,Unlimited,SBD,M,
Boys,109.77,16,Tre Inocencio,Ore City,101.42,174.63,113.4,172.37,460.4,Unlimited,SBD,M,
Boys,109.77,17,Brenden Nunez,Hughes Springs,104.05,170.1,113.4,142.88,426.38,Unlimited,SBD,M,
Boys,109.77,18,Bryan Cardenas,Pittsburg,104.6,174.63,102.06,149.69,426.38,Unlimited,SBD,M,
Boys,109.77,19,Ayden Wylie,Pittsburg,106.14,174.63,88.45,158.76,421.84,Unlimited,SBD,M,
Boys,109.77,20,Joe Jedlick,Hughes Springs,104.05,138.35,102.06,158.76,399.16,Unlimited,SBD,M,
Boys,109.77,21,James Jones,Queen City,109.41,129.27,83.91,138.35,351.53,Unlimited,SBD,M,
Boys,109.77,22,Charlie Robinson,Simms Bowie,103.96,92.99,56.7,104.33,254.01,Unlimited,SBD,M,
Boys,109.77,DQ,Jakaylon Williams,Marshall,107.5,183.7,,,,Unlimited,SBD,M,
Boys,124.74,1,Marlon Hayes,Daingerfield,113.76,226.8,174.63,226.8,628.23,Unlimited,SBD,M,
Boys,124.74,2,John Owens,Redwater,122.29,226.8,172.37,204.12,603.28,Unlimited,SBD,M,
Boys,124.74,3,Daniel Jones,Queen City,119.66,235.87,127.01,226.8,589.67,Unlimited,SBD,M,
Boys,124.74,4,Dawson Brooks,Gladewater Sabine,111.58,226.8,149.69,208.65,585.13,Unlimited,SBD,M,
Boys,124.74,5,Lane Woods,Harleton,110.31,226.8,124.74,208.65,560.19,Unlimited,SBD,M,
Boys,124.74,6,Marfe Cornelio,Tyler,117.75,192.78,120.2,226.8,539.77,Unlimited,SBD,M,
Boys,124.74,7,Anthony Brown,Ore City,120.02,192.78,129.27,204.12,526.17,Unlimited,SBD,M,
Boys,124.74,8,Sam Kinder,Hughes Springs,111.77,183.7,124.74,195.04,503.49,Unlimited,SBD,M,
Boys,124.74,9,Damien Chisum,Texarkana Texas,121.56,185.97,102.06,213.19,501.22,Unlimited,SBD,M,
Boys,124.74,10,Davonne Crocker,Atlanta,113.85,226.8,120.2,145.15,492.15,Unlimited,SBD,M,
Boys,124.74,11,Tyson Bell,Queen City,111.31,174.63,120.2,192.78,487.61,Unlimited,SBD,M,
Boys,124.74,12,Kelton Lee,Gladewater Sabine,110.77,188.24,120.2,165.56,474,Unlimited,SBD,M,
Boys,124.74,13,Kollin Posey,Pittsburg,121.29,183.7,102.06,183.7,469.47,Unlimited,SBD,M,
Boys,124.74,14,Brian Valdez,Henderson,117.93,170.1,108.86,174.63,453.59,Unlimited,SBD,M,
Boys,124.74,15,Jonah Brenner,Gladewater Sabine,119.84,163.29,117.93,172.37,453.59,Unlimited,SBD,M,
Boys,124.74,16,Colton Tutor,Redwater,111.22,158.76,113.4,165.56,437.72,Unlimited,SBD,M,
Boys,124.74,17,Marcellous Kirk,Atlanta,115.94,140.61,81.65,185.97,408.23,Unlimited,SBD,M,
Boys,124.74,18,Curtis Sellers,Atlanta,115.21,142.88,92.99,163.29,399.16,Unlimited,SBD,M,
Boys,124.74,19,Tucker Frachiseur,Redwater,122.02,145.15,97.52,147.42,390.09,Unlimited,SBD,M,
Boys,124.74,20,Jackson Woods,Hughes Springs,111.49,127.01,92.99,149.69,369.68,Unlimited,SBD,M,
Boys,124.74,21,Cutavion Ross,Tyler,118.3,147.42,79.38,142.88,369.68,Unlimited,SBD,M,
Boys,139.71,1,Bryce Clark,Jefferson,134.35,317.51,188.24,258.55,764.3,Unlimited,SBD,M,
Boys,139.71,2,Brock Johnson,Henderson,136.71,263.08,174.63,249.48,687.19,Unlimited,SBD,M,
Boys,139.71,3,Austin Allen,Simms Bowie,139.43,238.14,149.69,204.12,591.94,Unlimited,SBD,M,
Boys,139.71,4,Bryce Holmes,Texarkana Texas,136.35,229.06,163.29,183.7,576.06,Unlimited,SBD,M,
Boys,139.71,5,Caden Walker,Atlanta,125.01,226.8,124.74,204.12,555.65,Unlimited,SBD,M,
Boys,139.71,6,Jy'Keelin Frazier,Daingerfield,132,206.38,138.35,206.38,551.11,Unlimited,SBD,M,
Boys,139.71,7,Nick Yim,Redwater,128.19,215.46,127.01,204.12,546.58,Unlimited,SBD,M,
Boys,139.71,8,Nick Wallace,Daingerfield,125.55,188.24,108.86,197.31,494.42,Unlimited,SBD,M,
Boys,139.71,9,Shamar Pickett,Texarkana Liberty-Eylau,138.62,190.51,124.74,167.83,483.08,Unlimited,SBD,M,
Boys,139.71,10,Duncan McGhee,Texarkana Texas,125.46,183.7,111.13,183.7,478.54,Unlimited,SBD,M,
Boys,139.71,11,Trent Akers,Hughes Springs,135.71,188.24,92.99,190.51,471.74,Unlimited,SBD,M,
Boys,139.71+,1,Rhett Tucker,Simms Bowie,160.75,260.82,158.76,215.46,635.03,Unlimited,SBD,M,
Boys,139.71+,2,Zack Hulsher,Jefferson,140.34,251.74,138.35,204.12,594.21,Unlimited,SBD,M,
Boys,139.71+,3,Johnathan Bateman,Henderson,169.19,210.92,136.08,233.6,580.6,Unlimited,SBD,M,
Boys,139.71+,4,Brandon Rice,Jefferson,154.86,231.33,113.4,204.12,548.85,Unlimited,SBD,M,
Boys,139.71+,5,Dequavion Abbit,Texarkana Liberty-Eylau,159.39,199.58,136.08,204.12,539.77,Unlimited,SBD,M,
Boys,139.71+,6,Joshua Blackwell,Texarkana Texas,140.89,192.78,106.59,158.76,458.13,Unlimited,SBD,M,
Boys,139.71+,7,Riley Culpepper,Maud,140.61,170.1,90.72,192.78,453.59,Unlimited,SBD,M,
Boys,139.71+,8,Payton Campbell #1,Tyler,156.4,163.29,90.72,161.03,415.04,Unlimited,SBD,M,
Boys,139.71+,DQ,Jacob Seaton,Tyler,152.59,226.8,147.42,,,Unlimited,SBD,M,
