Place,Name,Sex,BirthDate,Age,Country,Equipment,Division,Event,BodyweightKg,WeightClassKg,Squat1Kg,Squat2Kg,Squat3Kg,Best3SquatKg,Bench1Kg,Bench2Kg,Bench3Kg,Best3BenchKg,Deadlift1Kg,Deadlift2Kg,Deadlift3Kg,Best3DeadliftKg,TotalKg
1,Darla Blaya,F,2004-07-12,20,Belgium,Sleeves,Juniors,SBD,46.2,47,77.5,82.5,87.5,87.5,37.5,40,42.5,42.5,95,102.5,107.5,107.5,237.5
1,Flavie Degols,F,2005-04-20,19,Belgium,Sleeves,Juniors,SBD,58.3,63,115,125,132.5,132.5,55,60,65,65,130,155,165,165,362.5
2,Evy van der Linde,F,2004-04-15,20,Belgium,Sleeves,Juniors,SBD,58.4,63,120,127.5,132.5,132.5,62.5,67.5,72.5,72.5,120,132.5,140,140,345
3,Alessie De Baets,F,2003-06-03,21,Belgium,Sleeves,Juniors,SBD,58.7,63,110,-117.5,117.5,117.5,-55,60,-62.5,60,132.5,140,147.5,147.5,325
1,Marie Hermans,F,2005-01-12,19,Belgium,Sleeves,Juniors,SBD,66,69,122.5,130,135,135,70,72.5,75,75,127.5,140,150,150,360
2,Patrycja Klofczynska,F,2001-08-15,23,Poland,Sleeves,Juniors,SBD,68,69,117.5,125,130,130,52.5,57.5,62.5,62.5,135,145,152.5,152.5,345
3,Lien Vroonen,F,2005-10-10,19,Belgium,Sleeves,Juniors,SBD,67.9,69,90,97.5,-105,97.5,65,70,-75,70,120,132.5,140,140,307.5
4,Lore Schockaert,F,2002-01-08,22,Belgium,Sleeves,Juniors,SBD,68,69,100,-107.5,-110,100,47.5,52.5,57.5,57.5,115,127.5,137.5,137.5,295
5,Sarah Cosaert,F,2005-11-20,18,Belgium,Sleeves,Juniors,SBD,65.8,69,100,105,-110,105,45,50,-57.5,50,110,122.5,130,130,285
1,Maude Sterckx,F,2004-01-08,20,Belgium,Sleeves,Juniors,SBD,72.8,76,132.5,142.5,147.5,147.5,75,80,-82.5,80,145,-155,-155,145,372.5
2,Ismay Gaemers,F,2002-01-02,22,Belgium,Sleeves,Juniors,SBD,73.3,76,-110,115,120,120,60,65,-67.5,65,140,150,-155,150,335
1,Britt Theunis,F,2001-12-28,22,Belgium,Sleeves,Juniors,SBD,82.9,84,127.5,137.5,145,145,60,65,-70,65,150,162.5,172.5,172.5,382.5
2,Julia Van de Goor,F,2003-04-01,21,Belgium,Sleeves,Juniors,SBD,78.5,84,130,137.5,-142.5,137.5,55,60,-65,60,130,142.5,-152.5,142.5,340
3,Eline Cosyn,F,2003-12-31,20,Belgium,Sleeves,Juniors,SBD,82.5,84,95,102.5,107.5,107.5,47.5,52.5,55,55,110,120,127.5,127.5,290
1,Ellen Schockaert,F,2003-03-18,21,Belgium,Sleeves,Juniors,SBD,92.5,84+,120,132.5,142.5,142.5,-70,77.5,-80,77.5,150,160,165,165,385
NS,Becky Revalk,F,1984-11-25,39,USA,Sleeves,Masters 1,SBD,51.2,52,,,,,,,,,,,,,
1,Anne-Mieke Nuyts,F,1975-05-13,49,Belgium,Sleeves,Masters 1,SBD,74.6,76,117.5,-120,-122.5,117.5,67.5,70,75.5,75.5,165,170,173,173,366
2,Katrien Adriaensens,F,1980-01-31,44,Belgium,Sleeves,Masters 1,SBD,74.8,76,120,130,137.5,137.5,65,70,-72.5,70,150,-160,-160,150,357.5
3,Liesbeth Stevens,F,1981-09-06,43,Belgium,Sleeves,Masters 1,SBD,74.8,76,82.5,87.5,92.5,92.5,47.5,52.5,55,55,110,115,120,120,267.5
NS,Katrien Terryn,F,1992-08-27,32,Belgium,Sleeves,Open,SBD,,,,,,,,,,,,,,,
1,Lieze Linden,F,1992-01-12,32,Belgium,Sleeves,Open,SBD,57,57,87.5,92.5,-97.5,92.5,55,57.5,60,60,125,132.5,-140,132.5,285
2,Carolina Torres Ortiz,F,1993-12-01,30,Belgium,Sleeves,Open,SBD,57,57,82.5,87.5,92.5,92.5,52.5,-57.5,57.5,57.5,125,132.5,-140,132.5,282.5
1,Anke Pannemans,F,1991-02-13,33,Belgium,Sleeves,Open,SBD,68.2,69,97.5,105,-107.5,105,50,55,-57.5,55,112.5,117.5,122.5,122.5,282.5
2,Juna Van Moer,F,2000-06-24,24,Belgium,Sleeves,Open,SBD,67.2,69,80,-90,90,90,47.5,52.5,55,55,92.5,105,112.5,112.5,257.5
3,Nathalie Van Bever,F,1990-05-18,34,Belgium,Sleeves,Open,SBD,65.4,69,-72.5,-75,75,75,45,47.5,52.5,52.5,95,100,107.5,107.5,235
1,Deborah Butera,F,1997-05-13,27,Belgium,Sleeves,Open,SBD,75.3,76,120,125,130,130,77.5,82.5,-87.5,82.5,170,177.5,-180,177.5,390
2,Zara Daelman,F,1997-03-23,27,Belgium,Sleeves,Open,SBD,72.4,76,122.5,130,-132.5,130,52.5,57.5,62.5,62.5,160,-165,-165,160,352.5
3,Eline Brilleman,F,1989-12-11,34,Belgium,Sleeves,Open,SBD,73.5,76,95,105,115,115,70,77.5,-82.5,77.5,130,145,155,155,347.5
4,Laura Biesmans,F,1997-09-16,27,Belgium,Sleeves,Open,SBD,74.7,76,115,125,130,130,75,80,-85,80,120,132.5,137.5,137.5,347.5
5,Laura Rouffa,F,1997-05-29,27,Belgium,Sleeves,Open,SBD,69.5,76,120,127.5,-135,127.5,50,55,57.5,57.5,125,135,145,145,330
6,Mirthe Parren,F,1999-04-14,25,Belgium,Sleeves,Open,SBD,73.5,76,92.5,100,-105,100,55,57.5,60,60,145,-155,160,160,320
1,Monica Kortleven,F,2000-04-22,24,Belgium,Sleeves,Open,SBD,83.6,84,137.5,145,150,150,75,-80,-82.5,75,145,155,-160,155,380
2,Sylvie Van Diest,F,1987-09-09,37,Belgium,Sleeves,Open,SBD,76.7,84,112.5,120,125,125,67.5,72.5,75,75,132.5,142.5,152.5,152.5,352.5
3,Anne Sofie Noël,F,1999-09-02,25,Belgium,Sleeves,Open,SBD,76.4,84,117.5,125,130,130,60,65,70,70,137.5,145,150,150,350
NS,Dorien Ballet,F,2008-11-17,15,Belgium,Sleeves,Sub-Juniors,SBD,,,,,,,,,,,,,,,
1,Lieze Vancoillie,F,2006-05-28,18,Belgium,Sleeves,Sub-Juniors,SBD,58.7,63,120,127.5,135,135,-57.5,60,-65,60,115,125,130,130,325
2,Soraya Peleman,F,2007-07-04,17,Belgium,Sleeves,Sub-Juniors,SBD,58.7,63,87.5,92.5,97.5,97.5,47.5,52.5,-55,52.5,-100,100,-105,100,250
1,Luna Claes,F,2007-03-02,17,Belgium,Sleeves,Sub-Juniors,SBD,70,76,120,-125,127.5,127.5,65,70,75,75,140,150.5,158,158,360.5
NS,Elise Rummens,F,1981-11-09,42,Belgium,Single-ply,Masters 1,B,61.3,63,,,,,,,,,,,,,
1,Bram Deckmyn,M,2004-03-21,20,Belgium,Sleeves,Juniors,SBD,57.1,59,140,150,155,155,100.5,105.5,110,110,160,170,180,180,445
1,Niels Deckmyn,M,2003-02-02,21,Belgium,Sleeves,Juniors,SBD,65.4,66,170,175,,175,100,105,-107.5,105,195,-207.5,-207.5,195,475
1,Yoran De Neve,M,2004-06-14,20,Belgium,Sleeves,Juniors,SBD,72,74,180,190,195,195,-100,107.5,110,110,195,210,-215,210,515
2,Jonas Depaepe,M,2003-09-18,21,Belgium,Sleeves,Juniors,SBD,72.2,74,150,160,-170,160,115,122.5,127.5,127.5,175,190,200,200,487.5
3,Dante Leerberghe,M,2003-11-04,20,Belgium,Sleeves,Juniors,SBD,73.1,74,-130,135,-145,135,90,97.5,102.5,102.5,180,-195,195,195,432.5
DQ,Gabor Siladji,M,2004-06-22,20,Germany,Sleeves,Juniors,SBD,72,74,170,175,177.5,177.5,85,90,-100,90,-185,-187.5,-187.5,,
1,Roan Ysebaert,M,2005-05-28,19,Belgium,Sleeves,Juniors,SBD,81.9,83,195,210,217.5,217.5,135,142.5,150,150,180,195,-205,195,562.5
2,Ruben Wellens,M,2001-11-30,22,Belgium,Sleeves,Juniors,SBD,81.3,83,-182.5,182.5,192.5,192.5,132.5,140,-145,140,197.5,210,-222.5,210,542.5
3,Robbe Andries,M,2004-09-20,20,Belgium,Sleeves,Juniors,SBD,80.1,83,167.5,177.5,-185,177.5,117.5,122.5,-127.5,122.5,215,230,240,240,540
4,Jonas Ameye,M,2003-01-27,21,Belgium,Sleeves,Juniors,SBD,80.1,83,170,180,187.5,187.5,110,120,125,125,200,-215,220,220,532.5
5,Brecht Colemont,M,2004-02-18,20,Belgium,Sleeves,Juniors,SBD,81,83,180,187.5,195,195,105,110,-115,110,210,222.5,227.5,227.5,532.5
6,Luca Duquesne,M,2002-10-24,22,Belgium,Sleeves,Juniors,SBD,80.8,83,170,182.5,190,190,107.5,117.5,-125,117.5,195,207.5,220,220,527.5
7,Loris Profeta,M,2001-01-03,23,Belgium,Sleeves,Juniors,SBD,78.1,83,170,180,187.5,187.5,105,110,115,115,200,215,220,220,522.5
8,Wout Aubroeck,M,2004-03-18,20,Belgium,Sleeves,Juniors,SBD,82.2,83,160,172.5,182.5,182.5,105,112.5,-117.5,112.5,180,195,210,210,505
9,Andreas Smets,M,2005-05-02,19,Belgium,Sleeves,Juniors,SBD,79.7,83,175,187.5,197.5,197.5,100,107.5,112.5,112.5,180,192.5,-200,192.5,502.5
10,Bilal Moulay,M,2004-05-17,20,Belgium,Sleeves,Juniors,SBD,81,83,160,170,-177.5,170,90,97.5,-100,97.5,175,185,195,195,462.5
1,Kyan Joubert,M,2002-05-03,22,Belgium,Sleeves,Juniors,SBD,92.3,93,210,225,230,230,145,152.5,-160,152.5,250,272.5,-280,272.5,655
2,Tycho Dehouck,M,2001-04-04,23,Belgium,Sleeves,Juniors,SBD,90.1,93,207.5,217.5,225,225,140,145,-152.5,145,257.5,275,-290,275,645
3,Freek Herregods,M,2003-10-24,21,Belgium,Sleeves,Juniors,SBD,91.5,93,200,212.5,220,220,130,137.5,142.5,142.5,240,255,265,265,627.5
4,Twan Zwarts,M,2005-04-08,19,Belgium,Sleeves,Juniors,SBD,89.1,93,220,232.5,-240,232.5,120,127.5,132.5,132.5,215,235,242.5,242.5,607.5
5,Chino De Coster,M,2002-02-19,22,Belgium,Sleeves,Juniors,SBD,92,93,190,200,207.5,207.5,135,142.5,147.5,147.5,200,215,222.5,222.5,577.5
6,Francis De Ridder,M,2005-01-22,19,Belgium,Sleeves,Juniors,SBD,87.3,93,200,212.5,215,215,105,120,-125,120,210,225,235,235,570
7,Hendrik Coppieters,M,2005-01-17,19,Belgium,Sleeves,Juniors,SBD,83.7,93,177.5,187.5,195,195,125,132.5,-140,132.5,200,212.5,222.5,222.5,550
8,Siebe Garello,M,2005-02-23,19,Belgium,Sleeves,Juniors,SBD,92.6,93,180,190,200,200,110,120,-125,120,200,212.5,225,225,545
9,Millo Steenackers,M,2005-07-27,19,Belgium,Sleeves,Juniors,SBD,91.3,93,175,185,-190,185,90,100,-102.5,100,240,255,-260,255,540
10,Robbe Pannekoeke,M,2001-07-02,23,Belgium,Sleeves,Juniors,SBD,83.8,93,130,142.5,150,150,77.5,85,90,90,170,182.5,195,195,435
1,Miel Loonis,M,2004-09-13,20,Belgium,Sleeves,Juniors,SBD,103.3,105,215,227.5,240,240,165,177.5,-190,177.5,215,227.5,232.5,232.5,650
2,Anthony Pappas,M,2002-10-11,22,Belgium,Sleeves,Juniors,SBD,100.7,105,217.5,225,232.5,232.5,-140,140,147.5,147.5,250,262.5,-275,262.5,642.5
3,Robbe Berten Stein,M,2002-11-08,21,Belgium,Sleeves,Juniors,SBD,99.9,105,205,220,225,225,120,127.5,132.5,132.5,240,260,277.5,277.5,635
4,Dylan Scheepmans,M,2002-02-02,22,Belgium,Sleeves,Juniors,SBD,103.5,105,217.5,225,-230,225,142.5,150,-155,150,230,240,250,250,625
5,Samil Gulec,M,2005-05-11,19,Belgium,Sleeves,Juniors,SBD,95.4,105,212.5,222.5,230,230,-145,150,-160,150,210,220,-225,220,600
6,Emilio Madera Y Diaz,M,2004-09-17,20,Belgium,Sleeves,Juniors,SBD,105,105,195,207.5,-217.5,207.5,135,145,150,150,220,240,-242.5,240,597.5
7,Fuentes Van Gele,M,2002-10-18,22,Belgium,Sleeves,Juniors,SBD,103.5,105,190,200,-210,200,130,140,-145,140,220,232.5,240,240,580
8,Emiel Vanherwegen,M,2003-07-22,21,Belgium,Sleeves,Juniors,SBD,96.3,105,187.5,197.5,-207.5,197.5,115,120,125,125,235,242.5,252.5,252.5,575
9,Liam Duchene,M,2002-11-24,21,Belgium,Sleeves,Juniors,SBD,100.2,105,190,200,-207.5,200,132.5,140,-145,140,200,215,225,225,565
1,Beau Tavernier,M,2002-01-16,22,Belgium,Sleeves,Juniors,SBD,117.9,120,225,235,242.5,242.5,150,155,-157.5,155,240,255,270,270,667.5
2,Mika Van Kerckhove,M,2002-11-05,21,Belgium,Sleeves,Juniors,SBD,119.7,120,-220,220,240,240,140,145,150,150,220,232.5,242.5,242.5,632.5
3,Yannick Schoefs,M,2005-10-22,19,Belgium,Sleeves,Juniors,SBD,110.6,120,210,220,230,230,120,130,-137.5,130,220,240,255,255,615
1,Rob Laethem,M,1984-08-28,40,Belgium,Sleeves,Masters 1,SBD,103.3,105,235,245,250,250,170,175,180,180,230,245,-247.5,245,675
2,Richard Hogg,M,1979-03-05,45,Belgium,Sleeves,Masters 1,SBD,103.1,105,170,182.5,190,190,122.5,127.5,132.5,132.5,195,210,220,220,542.5
1,Joris De Saedeleer,M,1979-10-19,45,Belgium,Sleeves,Masters 1,SBD,110.4,120,210,225,235,235,145,150,155,155,245,260,-270,260,650
2,Björn Vandenheede,M,1978-09-16,46,Belgium,Sleeves,Masters 1,SBD,113.4,120,195,210,-215,210,130,135,140,140,215,225,235,235,585
NS,Wesley Pultyn,M,1998-11-18,25,Belgium,Sleeves,Open,SBD,,,,,,,,,,,,,,,
NS,Yannick Hens,M,2001-10-12,23,Belgium,Sleeves,Juniors,SBD,,,,,,,,,,,,,,,
1,Dirk Verbruggen,M,1970-06-04,54,Belgium,Sleeves,Masters 2,SBD,65.1,66,165,-176,-176,165,80,85,-88,85,170,180,,180,430
1,Jochen Paessens,M,1974-05-08,50,Belgium,Sleeves,Masters 2,SBD,91.1,93,170,177.5,183,183,105,110,115,115,215,227.5,235,235,533
1,Michaël Desmet,M,1971-04-22,53,Belgium,Sleeves,Masters 2,SBD,109.5,120,205,,,205,147.5,152.5,160,160,195,-205,,195,560
NS,Brent Vanderbeken,M,1998-02-08,26,Belgium,Sleeves,Open,SBD,,,,,,,,,,,,,,,
1,Michiel Foriers,M,1999-05-01,25,Belgium,Sleeves,Open,SBD,72.7,74,185,195,200,200,112.5,120,-125,120,235,250,-255,250,570
2,Ian Hesbeens,M,1998-03-01,26,Belgium,Sleeves,Open,SBD,73.1,74,182.5,190,-195,190,107.5,115,122.5,122.5,192.5,-200,-200,192.5,505
1,Pieter Van Der Linden,M,1998-06-20,26,Belgium,Sleeves,Open,SBD,82.9,83,205,225,-235,225,140,,,140,250,265,-275,265,630
2,Aaron Messiant,M,1995-05-28,29,Belgium,Sleeves,Open,SBD,82.8,83,190,200,205,205,135,140,145,145,240,255,265,265,615
3,Thibault De Landsheer,M,2000-10-31,24,Belgium,Sleeves,Open,SBD,83,83,200,207.5,215,215,-147.5,155,160,160,202.5,210,217.5,217.5,592.5
4,Arthur Laurent,M,1996-08-22,28,Belgium,Sleeves,Open,SBD,81.2,83,182.5,195,205,205,122.5,130,135,135,212.5,230,235,235,575
5,Melvin Gastmans,M,1996-08-16,28,Belgium,Sleeves,Open,SBD,82,83,-205,210,-220,210,125,132.5,135,135,187.5,200,207.5,207.5,552.5
6,Jeroen Goethals,M,1997-02-07,27,Belgium,Sleeves,Open,SBD,82,83,170,180,-190,180,115,120,125,125,195,207.5,220,220,525
7,Keano Vansteenbrugge,M,1996-10-01,28,Belgium,Sleeves,Open,SBD,82.5,83,162.5,175,180,180,130,135,140,140,190,205,-212.5,205,525
8,Niels Van den Eynde,M,2000-05-19,24,Belgium,Sleeves,Open,SBD,82.5,83,190,-200,202.5,202.5,120,125,130,130,190,-192.5,,190,522.5
9,Robbe Van Thillo,M,2000-11-02,24,Belgium,Sleeves,Open,SBD,82.4,83,152.5,165,-175,165,107.5,115,120,120,210,-222.5,-227.5,210,495
10,Keanu Doesselaere,M,2000-10-20,24,Belgium,Sleeves,Open,SBD,81.9,83,92.5,100,107.5,107.5,70,75,80,80,122.5,132.5,140,140,327.5
1,Jonas Palinckx,M,1987-07-04,37,Belgium,Sleeves,Open,SBD,88.7,93,-212.5,222.5,-235,222.5,110,-120,120,120,237.5,250,265,265,607.5
2,Simon De Keyser,M,1999-07-17,25,Belgium,Sleeves,Open,SBD,90.5,93,212.5,222.5,227.5,227.5,115,120,122.5,122.5,232.5,247.5,255,255,605
3,Ryan Murphy #1,M,1988-05-05,36,Ireland,Sleeves,Open,SBD,92.4,93,187.5,197.5,-207.5,197.5,122.5,132.5,140,140,225,235,242.5,242.5,580
4,Arne Jacobs,M,2000-06-29,24,Belgium,Sleeves,Open,SBD,90.4,93,195,205,-207.5,205,107.5,112.5,117.5,117.5,215,227.5,235,235,557.5
5,Arne Servaes,M,1995-01-20,29,Belgium,Sleeves,Open,SBD,84.3,93,180,190,200,200,105,110,-115,110,210,222.5,230,230,540
6,Jeroen Leemans,M,1986-12-08,37,Belgium,Sleeves,Open,SBD,85.8,93,165,170,-175,170,120,127.5,132.5,132.5,190,200,,200,502.5
7,Jelle Verloes,M,1987-03-18,37,Belgium,Sleeves,Open,SBD,91.5,93,-155,155,165,165,95,100,-102.5,100,205,215,225,225,490
8,Michael Poelmans,M,1995-12-21,28,Belgium,Sleeves,Open,SBD,91.1,93,160,170,177.5,177.5,90,97.5,105,105,180,195,205,205,487.5
9,Niels Velaers,M,1998-11-27,25,Belgium,Sleeves,Open,SBD,92.5,93,160,-172.5,-172.5,160,110,115,120,120,170,185,195,195,475
1,Wouter Vertessen,M,1997-09-26,27,Belgium,Sleeves,Open,SBD,100.3,105,215,225,230,230,120,130,135,135,225,235,245,245,610
2,Jordy Lemmens,M,1999-11-19,24,Belgium,Sleeves,Open,SBD,100.7,105,180,195,205,205,125,135,140,140,210,230,255,255,600
3,Tom Drieskens,M,1999-10-22,25,Belgium,Sleeves,Open,SBD,98.7,105,175,187.5,195,195,115,122.5,130,130,225,245,260,260,585
4,Manu Vanmeerbeek,M,1994-02-21,30,Belgium,Sleeves,Open,SBD,101.6,105,180,192.5,-200,192.5,127.5,135,140,140,200,220,-230,220,552.5
5,Tim Heyrick,M,1992-05-11,32,Belgium,Sleeves,Open,SBD,95.4,105,130,140,145,145,90,95,-100,95,175,185,-195,185,425
6,Andy Frans,M,1986-12-05,37,Belgium,Sleeves,Open,SBD,99.2,105,115,122.5,132.5,132.5,67.5,72.5,75,75,145,155,160,160,367.5
NS,Jasper Vermeire,M,1996-11-19,27,Belgium,Sleeves,Open,SBD,95.1,105,,,,,,,,,,,,,
1,Nicola Ciola,M,1988-01-14,36,Belgium,Sleeves,Open,SBD,112.7,120,-230,235,245,245,140,-150,155,155,190,205,215,215,615
2,Daan Cluitmans,M,1988-01-08,36,Netherlands,Sleeves,Open,SBD,118,120,100,-110,110,110,50,60,-70,60,125,137.5,150,150,320
1,Benito Uellendahl,M,2008-07-29,16,Belgium,Sleeves,Sub-Juniors,SBD,61.6,66,107.5,117.5,127.5,127.5,85,90,95,95,130,135,140,140,362.5
DQ,Emiel Van de Veire,M,2008-02-02,16,Belgium,Sleeves,Sub-Juniors,SBD,64.8,66,112.5,120,-130,120,72.5,80,85,85,-130,-140,-140,,
1,Leo Nolle,M,2007-05-07,17,Belgium,Sleeves,Sub-Juniors,SBD,71.9,74,172.5,180,190,190,102.5,110,-115,110,220,235.5,248,248,548
2,Ulysse Van Damme,M,2008-01-08,16,Belgium,Sleeves,Sub-Juniors,SBD,73.1,74,155,162.5,-167.5,162.5,115,122.5,-133.5,122.5,-170,170,180,180,465
3,Tim Deckmyn,M,2008-10-30,16,Belgium,Sleeves,Sub-Juniors,SBD,70.4,74,-160,170,180,180,90,-95,-95,90,170,185,-192.5,185,455
4,Tom Vossen,M,2008-08-26,16,Belgium,Sleeves,Sub-Juniors,SBD,71.9,74,140,-150,-150,140,-77.5,82.5,87.5,87.5,160,172.5,175,175,402.5
5,Arne Tack,M,2007-05-03,17,Belgium,Sleeves,Sub-Juniors,SBD,73.4,74,127.5,135,142.5,142.5,80,85,-90,85,152.5,165,170,170,397.5
6,Laurens Van Bouwel,M,2007-08-09,17,Belgium,Sleeves,Sub-Juniors,SBD,66.6,74,140,-150,152.5,152.5,72.5,80,82.5,82.5,140,150,160,160,395
7,Alexander Beirinckx,M,2007-09-12,17,Belgium,Sleeves,Sub-Juniors,SBD,71,74,125,135,140,140,75,80,85,85,125,135,-145,135,360
1,Soufiane Bouzelmat,M,2006-02-11,18,Belgium,Sleeves,Sub-Juniors,SBD,82.3,83,190,197.5,202.5,202.5,142.5,147.5,-150,147.5,-210,220,,220,570
2,Lasse Willems,M,2007-04-03,17,Belgium,Sleeves,Sub-Juniors,SBD,82.8,83,-177.5,187.5,192.5,192.5,117.5,125,-130,125,200,210,217.5,217.5,535
3,Jan Van der Veken,M,2007-11-05,16,Belgium,Sleeves,Sub-Juniors,SBD,81,83,170,180,185,185,112.5,117.5,122.5,122.5,190,205,212.5,212.5,520
4,Rémi Kindt,M,2007-08-15,17,Belgium,Sleeves,Sub-Juniors,SBD,79.2,83,160,170,-180,170,115,120,-125,120,180,190,200,200,490
5,Robby Dictus,M,2006-03-12,18,Belgium,Sleeves,Sub-Juniors,SBD,77.2,83,150,162.5,175,175,100,105,110,110,185,200,-215,200,485
1,Gerd Coenen,M,2007-03-28,17,Belgium,Sleeves,Sub-Juniors,SBD,102.5,105,-187.5,192.5,205,205,117.5,120,122.5,122.5,225,240,-250,240,567.5
1,Daan-Clothaire De Deken,M,2007-03-17,17,Belgium,Sleeves,Sub-Juniors,SBD,107.3,120,226.5,240.5,250.5,250.5,120,125,130,130,230,251.5,260.5,260.5,641
1,Gabriel Mourad,M,2006-10-23,18,Belgium,Sleeves,Sub-Juniors,SBD,147,120+,185,200,-215,200,140,147.5,152.5,152.5,230,240,-245,240,592.5
1,Lieven De Saedeleer,M,1988-03-08,36,Belgium,Single-ply,Open,SBD,102,105,230,240,-245,240,155,162.5,170,170,260,280,290,290,700
NS,Joël Vanhevel,M,1989-10-10,35,Belgium,Single-ply,Open,B,,,,,,,,,,,,,,,
NS,Wouter De Saedeleer,M,1985-10-20,39,Belgium,Single-ply,Open,B,103.7,105,,,,,,,,,,,,,
