Division,WeightClassKg,Place,Name,Team,BodyweightKg,Best3SquatKg,Best3BenchKg,Best3DeadliftKg,TotalKg,Equipment,Event,Sex,BirthDate
Boys,51.71,1,Malachi Flores,Plainview,51.26,140.61,88.45,165.56,394.63,Unlimited,SBD,M,
Boys,51.71,2,Eddie Hinojos,Odessa,51.17,131.54,72.57,163.29,367.41,Unlimited,SBD,M,
Boys,51.71,3,Sergio Perales,Midland Legacy,50.44,127.01,79.38,158.76,365.14,Unlimited,SBD,M,
Boys,51.71,4,Elias Gonzales,Lubbock,50.08,127.01,65.77,142.88,335.66,Unlimited,SBD,M,
Boys,51.71,5,Nevin Walker,Aledo,47.54,88.45,56.7,97.52,242.67,Unlimited,SBD,M,
Boys,51.71,6,Tanner Almquist,Weatherford,48.81,83.91,52.16,90.72,226.8,Unlimited,SBD,M,
Boys,51.71,7,James Kizewic,Weatherford,35.56,54.43,31.75,83.91,170.1,Unlimited,SBD,M,
Boys,51.71,DQ,Andre Quiroz,Odessa Permian,51.71,,,,,Unlimited,SBD,M,
Boys,55.79,1,John Hernandez,Lubbock Monterey,53.34,172.37,99.79,161.03,433.18,Unlimited,SBD,M,
Boys,55.79,2,Aiden Lopez,Plainview,54.61,158.76,90.72,142.88,392.36,Unlimited,SBD,M,
Boys,55.79,3,David Rojas,Odessa,55.7,136.08,83.91,149.69,369.68,Unlimited,SBD,M,
Boys,55.79,4,Wilson Sehnem,Aledo,54.61,138.35,79.38,145.15,362.87,Unlimited,SBD,M,
Boys,55.79,5,Santos Torres,Plainview,54.79,136.08,72.57,154.22,362.87,Unlimited,SBD,M,
Boys,55.79,6,Leonel Lozano,Abilene,54.7,115.67,61.23,154.22,331.12,Unlimited,SBD,M,
Boys,55.79,7,Seth Baiza,Midland,55.7,106.59,79.38,145.15,331.12,Unlimited,SBD,M,
Boys,55.79,8,Dylan Cantrell,Abilene Wylie,53.52,102.06,74.84,113.4,290.3,Unlimited,SBD,M,
Boys,55.79,9,Jeevan Santhosh,Lubbock,54.61,102.06,54.43,108.86,265.35,Unlimited,SBD,M,
Boys,55.79,10,Neil Marsden,Weatherford,55.43,90.72,45.36,97.52,233.6,Unlimited,SBD,M,
Boys,55.79,NS,Josiah Salazar,Abilene Wylie,,,,,,Unlimited,SBD,M,
Boys,59.87,1,Ethan Martinez,Wolfforth Frenship,58.6,204.12,127.01,199.58,530.7,Unlimited,SBD,M,
Boys,59.87,2,Isac Obregon,Lubbock,58.42,154.22,122.47,181.44,458.13,Unlimited,SBD,M,
Boys,59.87,3,Julius Saenz,Odessa,59.69,156.49,102.06,142.88,401.43,Unlimited,SBD,M,
Boys,59.87,4,Ryan Ekberg,Weatherford,59.24,145.15,104.33,147.42,396.89,Unlimited,SBD,M,
Boys,59.87,5,Gabriel Alaniz,Midland Legacy,58.69,147.42,81.65,158.76,387.82,Unlimited,SBD,M,
Boys,59.87,6,Malachi Perez,Wichita Falls Rider,58.97,145.15,83.91,147.42,376.48,Unlimited,SBD,M,
Boys,59.87,7,Andrew Fidler,Weatherford,59.51,136.08,81.65,149.69,367.41,Unlimited,SBD,M,
Boys,59.87,8,Marco Washington,Plainview,57.52,136.08,70.31,136.08,342.46,Unlimited,SBD,M,
Boys,59.87,9,Brennen Boehl,Weatherford,59.42,127.01,86.18,127.01,340.19,Unlimited,SBD,M,
Boys,59.87,NS,Britto Willey,Lubbock,,,,,,Unlimited,SBD,M,
Boys,59.87,DQ,Alex Garcia,Plainview,58.97,163.29,88.45,,,Unlimited,SBD,M,
Boys,59.87,DQ,Izaiah Sanchez,Plainview,58.15,120.2,70.31,,,Unlimited,SBD,M,
Boys,67.13,1,Landry Carlton,Abilene Wylie,66.77,294.84,142.88,249.48,687.19,Unlimited,SBD,M,
Boys,67.13,2,Jaxon Peacock,Abilene Wylie,65.59,226.8,151.95,206.38,585.13,Unlimited,SBD,M,
Boys,67.13,3,Royce Knight,Midland,67.04,201.85,113.4,210.92,526.17,Unlimited,SBD,M,
Boys,67.13,4,Michael Garza,Wolfforth Frenship,66.5,183.7,140.61,199.58,523.9,Unlimited,SBD,M,
Boys,67.13,5,Revin Gavino,Abilene Wylie,66.5,208.65,127.01,185.97,521.63,Unlimited,SBD,M,
Boys,67.13,6,Izik Godino,Plainview,63.41,183.7,120.2,183.7,487.61,Unlimited,SBD,M,
Boys,67.13,7,Ryan Ly,Wichita Falls Rider,66.41,176.9,120.2,190.51,487.61,Unlimited,SBD,M,
Boys,67.13,8,Luis Sanchez,Weatherford,65.5,181.44,108.86,172.37,462.66,Unlimited,SBD,M,
Boys,67.13,NS,Caston Miller,Odessa Permian,,,,,,Unlimited,SBD,M,
Boys,67.13,NS,Toby Blankinship,Odessa,,,,,,Unlimited,SBD,M,
Boys,67.13,DQ,Andy Martinez,Odessa,66.22,,,,,Unlimited,SBD,M,
Boys,67.13,DQ,Aaron Dominguez,Lubbock Cooper,64.41,,,,,Unlimited,SBD,M,
Boys,74.84,1,Luis Chavez,Odessa Permian,71.67,199.58,147.42,235.87,582.87,Unlimited,SBD,M,
Boys,74.84,2,Adam Tran,Wichita Falls Rider,72.39,190.51,120.2,249.48,560.19,Unlimited,SBD,M,
Boys,74.84,3,Preston McNutt,Plainview,72.39,210.92,124.74,213.19,548.85,Unlimited,SBD,M,
Boys,74.84,4,Nicholas Perez,San Angelo Central,73.39,195.04,131.54,217.72,544.31,Unlimited,SBD,M,
Boys,74.84,5,Andrew Chasteen,Aledo,71.03,185.97,122.47,219.99,528.44,Unlimited,SBD,M,
Boys,74.84,6,Drayton McCoy,Midland,73.75,201.85,127.01,197.31,526.17,Unlimited,SBD,M,
Boys,74.84,7,Cory Tilly,Aledo,73.21,195.04,131.54,188.24,514.83,Unlimited,SBD,M,
Boys,74.84,8,Glenn Edwards,Abilene Wylie,73.57,174.63,142.88,174.63,492.15,Unlimited,SBD,M,
Boys,74.84,9,Landen Webb,Midland Legacy,73.75,174.63,124.74,183.7,483.08,Unlimited,SBD,M,
Boys,74.84,NS,Jack Pollard,Wolfforth Frenship,,,,,,Unlimited,SBD,M,
Boys,74.84,NS,Fabio Ranes,Odessa,,,,,,Unlimited,SBD,M,
Boys,74.84,DQ,Jesus Maya,Weatherford,74.21,,,,,Unlimited,SBD,M,
Boys,82.1,1,Omar Ramos,Odessa Permian,80.1,242.67,151.95,204.12,598.74,Unlimited,SBD,M,
Boys,82.1,2,Rigoverto Medina,Lubbock Cooper,80.74,233.6,142.88,215.46,591.94,Unlimited,SBD,M,
Boys,82.1,3,Victor Ochoa,Midland Legacy,77.56,219.99,129.27,226.8,576.06,Unlimited,SBD,M,
Boys,82.1,4,Ryan Pacheco,Midland Legacy,80.47,197.31,158.76,217.72,573.79,Unlimited,SBD,M,
Boys,82.1,5,Ben Turnbow,Abilene Wylie,77.75,208.65,138.35,213.19,560.19,Unlimited,SBD,M,
Boys,82.1,6,Elijah McCoy,Midland,80.29,222.26,138.35,197.31,557.92,Unlimited,SBD,M,
Boys,82.1,7,Baylor Unfred,Weatherford,81.1,192.78,147.42,208.65,548.85,Unlimited,SBD,M,
Boys,82.1,8,Malachi Daniels,Abilene Wylie,81.28,206.38,138.35,204.12,548.85,Unlimited,SBD,M,
Boys,82.1,9,Mason Gallarneau,Lubbock Cooper,80.29,206.38,117.93,197.31,521.63,Unlimited,SBD,M,
Boys,82.1,NS,Andrew Acevedo,Wolfforth Frenship,,,,,,Unlimited,SBD,M,
Boys,82.1,DQ,Ian Chavez,Odessa,82.1,,,,,Unlimited,SBD,M,
Boys,82.1,DQ,Jaxon Carpenter,Abilene Wylie,80.01,,,,,Unlimited,SBD,M,
Boys,89.81,1,Jaileel Ross,Lubbock Cooper,87.54,306.17,174.63,306.17,786.98,Unlimited,SBD,M,
Boys,89.81,2,Caleb Loth,Aledo,86.36,251.74,165.56,242.67,659.98,Unlimited,SBD,M,
Boys,89.81,3,Barrett Smith,Weatherford,84.37,244.94,174.63,219.99,639.57,Unlimited,SBD,M,
Boys,89.81,4,Andrew Heleguera,Odessa Permian,88.45,263.08,145.15,226.8,635.03,Unlimited,SBD,M,
Boys,89.81,5,Felipe Ramirez,Midland Legacy,87.27,219.99,170.1,235.87,625.96,Unlimited,SBD,M,
Boys,89.81,6,Jonathan Visciano,Odessa Permian,85.64,226.8,158.76,222.26,607.81,Unlimited,SBD,M,
Boys,89.81,7,Caysen Clinton,Odessa Permian,85.91,244.94,161.03,190.51,596.47,Unlimited,SBD,M,
Boys,89.81,8,Victor Ramirez,Odessa Permian,89.81,206.38,136.08,222.26,564.72,Unlimited,SBD,M,
Boys,89.81,9,Aldo Batres,Plainview,84.73,201.85,140.61,199.58,542.04,Unlimited,SBD,M,
Boys,89.81,10,Tyler Hughes,Odessa Permian,86.64,183.7,142.88,215.46,542.04,Unlimited,SBD,M,
Boys,89.81,11,Jesus Montes,Odessa,89.72,208.65,136.08,188.24,532.97,Unlimited,SBD,M,
Boys,89.81,12,Josh Garcia,Plainview,88.99,206.38,124.74,185.97,517.1,Unlimited,SBD,M,
Boys,89.81,DQ,Jailyn Gibbs,Wichita Falls Rider,89.81,,,,,Unlimited,SBD,M,
Boys,89.81,DQ,Ruben Portillo,Midland,85.37,190.51,,,,Unlimited,SBD,M,
Boys,99.79,1,Dahvon Keys,Aledo,93.44,260.82,161.03,256.28,678.12,Unlimited,SBD,M,
Boys,99.79,2,Westin Rose,Abilene Wylie,95.25,272.16,176.9,229.06,678.12,Unlimited,SBD,M,
Boys,99.79,3,Jeff Ross,Wichita Falls Rider,97.25,235.87,151.95,231.33,619.15,Unlimited,SBD,M,
Boys,99.79,4,Jamikel Cobb,Odessa,92.62,235.87,145.15,226.8,607.81,Unlimited,SBD,M,
Boys,99.79,5,Izack Villasenor,Midland Legacy,95.89,217.72,142.88,233.6,594.21,Unlimited,SBD,M,
Boys,99.79,6,Caden Green,Abilene Wylie,98.07,197.31,188.24,201.85,587.4,Unlimited,SBD,M,
Boys,99.79,7,Caden Atwood,Aledo,97.25,238.14,142.88,204.12,585.13,Unlimited,SBD,M,
Boys,99.79,8,Evis Bobey-Munoz,Midland Legacy,97.07,226.8,147.42,208.65,582.87,Unlimited,SBD,M,
Boys,99.79,9,Zander Thompson,Weatherford,98.34,204.12,163.29,188.24,555.65,Unlimited,SBD,M,
Boys,99.79,NS,Nathan Carrillo,Plainview,,,,,,Unlimited,SBD,M,
Boys,99.79,DQ,Evan Rios,Wichita Falls Rider,91.81,,,,,Unlimited,SBD,M,
Boys,99.79,DQ,Terry Ojopagogo,Midland Legacy,99.79,235.87,147.42,,,Unlimited,SBD,M,
Boys,109.77,1,Karson Daniel,Weatherford,107.32,283.5,201.85,272.16,757.5,Unlimited,SBD,M,
Boys,109.77,2,Reynaldo Loredo,Wolfforth Frenship,108.86,272.16,156.49,247.21,675.85,Unlimited,SBD,M,
Boys,109.77,3,Juan Torres,Midland Legacy,107.23,244.94,188.24,226.8,659.98,Unlimited,SBD,M,
Boys,109.77,4,Alex Arana,Aledo,101.6,254.01,158.76,235.87,648.64,Unlimited,SBD,M,
Boys,109.77,5,Eddie Salazar,Plainview,108.86,260.82,154.22,233.6,648.64,Unlimited,SBD,M,
Boys,109.77,6,Christian Reyas,Midland Legacy,106.05,224.53,185.97,231.33,641.83,Unlimited,SBD,M,
Boys,109.77,7,Justice DeLeon,Plainview,106.14,244.94,142.88,226.8,614.62,Unlimited,SBD,M,
Boys,109.77,8,Asher Feriend,Weatherford,102.78,226.8,158.76,217.72,603.28,Unlimited,SBD,M,
Boys,109.77,9,Gideon Perez,Wichita Falls Rider,104.14,238.14,154.22,208.65,601.01,Unlimited,SBD,M,
Boys,109.77,10,Alex Mehaffey,Abilene,105.05,226.8,127.01,226.8,580.6,Unlimited,SBD,M,
Boys,109.77,11,Joaquin Vasquez,Midland,103.42,217.72,136.08,213.19,566.99,Unlimited,SBD,M,
Boys,124.74,1,Hayden Becerra,Midland Legacy,119.75,317.51,240.4,247.21,805.13,Unlimited,SBD,M,
Boys,124.74,2,Noel Herrera,Abilene Cooper,122.47,272.16,183.7,242.67,698.53,Unlimited,SBD,M,
Boys,124.74,3,Damian Dominguez,Odessa,114.58,292.57,151.95,224.53,669.05,Unlimited,SBD,M,
Boys,124.74,4,Raymond Howard,Aledo,115.76,256.28,156.49,240.4,653.17,Unlimited,SBD,M,
Boys,124.74,5,Estevan Llanez,Midland,119.2,242.67,165.56,240.4,648.64,Unlimited,SBD,M,
Boys,124.74,6,Jose Guerrero,Odessa,120.2,244.94,158.76,226.8,630.49,Unlimited,SBD,M,
Boys,124.74,7,Lucas Barrientes,Midland Legacy,119.02,238.14,154.22,222.26,614.62,Unlimited,SBD,M,
Boys,124.74,8,Jett Garcia,Midland,121.29,240.4,145.15,201.85,587.4,Unlimited,SBD,M,
Boys,124.74,9,Jonah Ovalle,Midland,120.93,235.87,136.08,199.58,571.53,Unlimited,SBD,M,
Boys,124.74,NS,Jonathan Duzal,Odessa,,,,,,Unlimited,SBD,M,
Boys,124.74,DQ,Elyjah Goatley,Wichita Falls Rider,111.86,,,,,Unlimited,SBD,M,
Boys,124.74,DQ,Joshua Leal,Lubbock Cooper,120.2,226.8,,,,Unlimited,SBD,M,
Boys,139.71,1,Cayden Clay,Abilene Wylie,125.01,322.05,208.65,238.14,768.84,Unlimited,SBD,M,
Boys,139.71,2,Goni Gjocaj,Abilene Wylie,130.63,272.16,204.12,235.87,712.14,Unlimited,SBD,M,
Boys,139.71,3,Gerardo Vasquez,Odessa,133.99,301.64,165.56,240.4,707.6,Unlimited,SBD,M,
Boys,139.71,4,Byron Wheeler,Aledo,125.01,260.82,163.29,247.21,671.32,Unlimited,SBD,M,
Boys,139.71,5,Blaize Whitaker,Wolfforth Frenship,137.53,240.4,174.63,254.01,669.05,Unlimited,SBD,M,
Boys,139.71,6,Chasen McCue,Weatherford,131.63,226.8,181.44,213.19,621.42,Unlimited,SBD,M,
Boys,139.71,7,Cape Johnson,Wichita Falls Rider,130,235.87,165.56,210.92,612.35,Unlimited,SBD,M,
Boys,139.71,8,LaCurtis Washington,Midland,138.8,249.48,136.08,226.8,612.35,Unlimited,SBD,M,
Boys,139.71,9,Josh Ortiz,Wolfforth Frenship,133.81,240.4,127.01,217.72,585.13,Unlimited,SBD,M,
Boys,139.71,NS,Dj Williams,Aledo,,,,,,Unlimited,SBD,M,
Boys,139.71,DQ,Cael Hitchcock,Lubbock Monterey,127.73,242.67,149.69,,,Unlimited,SBD,M,
Boys,139.71,DQ,Riley Bostick,Weatherford,125.19,217.72,172.37,,,Unlimited,SBD,M,
Boys,139.71+,1,John Martinez-Guedry,Midland,139.8,331.12,217.72,288.03,836.88,Unlimited,SBD,M,
Boys,139.71+,2,Cam Vann,Abilene Wylie,144.7,283.5,192.78,249.48,725.75,Unlimited,SBD,M,
Boys,139.71+,3,Brandon Ortega,Plainview,140.61,317.51,185.97,213.19,716.68,Unlimited,SBD,M,
Boys,139.71+,4,Pedro Loredo,Wolfforth Frenship,147.96,290.3,158.76,215.46,664.51,Unlimited,SBD,M,
Boys,139.71+,5,Kayden Bryan,Abilene Cooper,151.05,238.14,179.17,240.4,657.71,Unlimited,SBD,M,
Boys,139.71+,6,Joshua Rangel,Wolfforth Frenship,147.15,226.8,165.56,238.14,630.49,Unlimited,SBD,M,
Boys,139.71+,7,Daegen Hinson,Lubbock Monterey,151.05,251.74,133.81,226.8,612.35,Unlimited,SBD,M,
Boys,139.71+,8,Kristian Howard,Odessa,142.7,208.65,192.78,208.65,610.08,Unlimited,SBD,M,
Boys,139.71+,9,Wyatt Edge,Wolfforth Frenship,140.16,247.21,136.08,197.31,580.6,Unlimited,SBD,M,
Boys,139.71+,10,Braxton Scott,Abilene,164.38,215.46,129.27,190.51,535.24,Unlimited,SBD,M,
Boys,139.71+,11,Xanaan Fletcher,Abilene Cooper,148.51,229.06,136.08,165.56,530.7,Unlimited,SBD,M,
Boys,139.71+,DQ,Sutton Peck,Abilene Wylie,144.06,249.48,183.7,,,Unlimited,SBD,M,
Boys,,NS,Jadon Rodriguez,Wolfforth Frenship,,,,,,Unlimited,SBD,M,
